%YAML 1.1
%TAG !u! tag:unity3d.com,2011:
--- !u!74 &7400000
AnimationClip:
  m_ObjectHideFlags: 0
  m_CorrespondingSourceObject: {fileID: 0}
  m_PrefabInstance: {fileID: 0}
  m_PrefabAsset: {fileID: 0}
  m_Name: Power-Pellet
  serializedVersion: 6
  m_Legacy: 0
  m_Compressed: 0
  m_UseHighQualityCurve: 1
  m_RotationCurves: []
  m_CompressedRotationCurves: []
  m_EulerCurves: []
  m_PositionCurves: []
  m_ScaleCurves: []
  m_FloatCurves: []
  m_PPtrCurves:
  - curve:
    - time: 0
      value: {fileID: -5440620287006561529, guid: 5c309a9f27cc749c9a500105eab5a27c,
        type: 3}
    - time: 0.14285715
      value: {fileID: -7273890376394892277, guid: 5c309a9f27cc749c9a500105eab5a27c,
        type: 3}
    - time: 0.2857143
      value: {fileID: 3952737189663667954, guid: 5c309a9f27cc749c9a500105eab5a27c,
        type: 3}
    - time: 0.42857143
      value: {fileID: 6659748698799832909, guid: 5c309a9f27cc749c9a500105eab5a27c,
        type: 3}
    - time: 0.5714286
      value: {fileID: 4127353226446762189, guid: 5c309a9f27cc749c9a500105eab5a27c,
        type: 3}
    - time: 0.71428573
      value: {fileID: 852536122413492130, guid: 5c309a9f27cc749c9a500105eab5a27c,
        type: 3}
    attribute: m_Sprite
    path: 
    classID: 212
    script: {fileID: 0}
  m_SampleRate: 7
  m_WrapMode: 0
  m_Bounds:
    m_Center: {x: 0, y: 0, z: 0}
    m_Extent: {x: 0, y: 0, z: 0}
  m_ClipBindingConstant:
    genericBindings:
    - serializedVersion: 2
      path: 0
      attribute: 0
      script: {fileID: 0}
      typeID: 212
      customType: 23
      isPPtrCurve: 1
    pptrCurveMapping:
    - {fileID: -5440620287006561529, guid: 5c309a9f27cc749c9a500105eab5a27c, type: 3}
    - {fileID: -7273890376394892277, guid: 5c309a9f27cc749c9a500105eab5a27c, type: 3}
    - {fileID: 3952737189663667954, guid: 5c309a9f27cc749c9a500105eab5a27c, type: 3}
    - {fileID: 6659748698799832909, guid: 5c309a9f27cc749c9a500105eab5a27c, type: 3}
    - {fileID: 4127353226446762189, guid: 5c309a9f27cc749c9a500105eab5a27c, type: 3}
    - {fileID: 852536122413492130, guid: 5c309a9f27cc749c9a500105eab5a27c, type: 3}
  m_AnimationClipSettings:
    serializedVersion: 2
    m_AdditiveReferencePoseClip: {fileID: 0}
    m_AdditiveReferencePoseTime: 0
    m_StartTime: 0
    m_StopTime: 0.85714287
    m_OrientationOffsetY: 0
    m_Level: 0
    m_CycleOffset: 0
    m_HasAdditiveReferencePose: 0
    m_LoopTime: 1
    m_LoopBlend: 0
    m_LoopBlendOrientation: 0
    m_LoopBlendPositionY: 0
    m_LoopBlendPositionXZ: 0
    m_KeepOriginalOrientation: 0
    m_KeepOriginalPositionY: 1
    m_KeepOriginalPositionXZ: 0
    m_HeightFromFeet: 0
    m_Mirror: 0
  m_EditorCurves: []
  m_EulerEditorCurves: []
  m_HasGenericRootTransform: 0
  m_HasMotionFloatCurves: 0
  m_Events: []
